[0623/151038.786:ERROR:file_io_win.cc(163)] CreateFile C:\Program Files\temp\settings.dat: Access is denied. (0x5)
[0623/151038.788:ERROR:registration_protocol_win.cc(83)] TransactNamedPipe: The pipe has been ended. (0x6D)
[0623/151038.797:ERROR:file_io_win.cc(163)] CreateFile C:\Program Files\temp\settings.dat: Access is denied. (0x5)
